EESchema Schematic File Version 2
LIBS:power
LIBS:device
LIBS:transistors
LIBS:conn
LIBS:linear
LIBS:regul
LIBS:74xx
LIBS:cmos4000
LIBS:adc-dac
LIBS:memory
LIBS:xilinx
LIBS:microcontrollers
LIBS:dsp
LIBS:microchip
LIBS:analog_switches
LIBS:motorola
LIBS:texas
LIBS:intel
LIBS:audio
LIBS:interface
LIBS:digital-audio
LIBS:philips
LIBS:display
LIBS:cypress
LIBS:siliconi
LIBS:opto
LIBS:atmel
LIBS:contrib
LIBS:valves
LIBS:parts
LIBS:onsemi
LIBS:switches
LIBS:letter-power-converter-cache
EELAYER 25 0
EELAYER END
$Descr A4 11693 8268
encoding utf-8
Sheet 1 1
Title ""
Date ""
Rev ""
Comp ""
Comment1 ""
Comment2 ""
Comment3 ""
Comment4 ""
$EndDescr
$Comp
L TPS43061 U1
U 1 1 5AE1616A
P 3200 1800
F 0 "U1" H 3200 2250 60  0000 C CNN
F 1 "TPS43061" H 3200 900 60  0000 C CNN
F 2 "Local:WQFN-16_Pitch0.5mm" H 3200 1400 60  0001 C CNN
F 3 "" H 3200 1400 60  0001 C CNN
	1    3200 1800
	1    0    0    -1  
$EndComp
$Comp
L NVMFD5C680NL Q1
U 2 1 5AE163A4
P 4500 2550
F 0 "Q1" H 4700 2625 50  0000 L CNN
F 1 "NVMFD5C680NL" H 4700 2550 50  0000 L CNN
F 2 "Local:DFN-8-6x5mm-Dual" H 4750 2475 50  0001 L CIN
F 3 "" H 4500 2550 50  0001 L CNN
	2    4500 2550
	1    0    0    -1  
$EndComp
$Comp
L NVMFD5C680NL Q1
U 1 1 5AE16517
P 4500 1650
F 0 "Q1" H 4700 1725 50  0000 L CNN
F 1 "NVMFD5C680NL" H 4700 1650 50  0000 L CNN
F 2 "Local:DFN-8-6x5mm-Dual" H 4750 1575 50  0001 L CIN
F 3 "" H 4500 1650 50  0001 L CNN
	1    4500 1650
	1    0    0    -1  
$EndComp
$Comp
L R_Small R6
U 1 1 5AE16D24
P 2450 1100
F 0 "R6" V 2275 1100 50  0000 C CNN
F 1 "22mR" V 2350 1100 50  0000 C CNN
F 2 "Local:R_0603_Sense" V 2380 1100 50  0001 C CNN
F 3 "" H 2450 1100 50  0001 C CNN
	1    2450 1100
	0    1    1    0   
$EndComp
$Comp
L R R1
U 1 1 5AE16D9D
P 1650 2350
F 0 "R1" V 1730 2350 50  0000 C CNN
F 1 "16.2kR" V 1650 2350 50  0000 C CNN
F 2 "Resistors_SMD:R_0603_HandSoldering" V 1580 2350 50  0001 C CNN
F 3 "" H 1650 2350 50  0001 C CNN
	1    1650 2350
	1    0    0    -1  
$EndComp
$Comp
L C_Small C3
U 1 1 5AE16E3A
P 1650 2650
F 0 "C3" H 1660 2720 50  0000 L CNN
F 1 "1000pF 50V" H 1660 2570 50  0000 L CNN
F 2 "Local:C_0603_Margin" H 1650 2650 50  0001 C CNN
F 3 "" H 1650 2650 50  0001 C CNN
	1    1650 2650
	1    0    0    -1  
$EndComp
$Comp
L GND #PWR01
U 1 1 5AE16EB5
P 1650 2800
F 0 "#PWR01" H 1650 2550 50  0001 C CNN
F 1 "GND" H 1650 2650 50  0000 C CNN
F 2 "" H 1650 2800 50  0001 C CNN
F 3 "" H 1650 2800 50  0001 C CNN
	1    1650 2800
	1    0    0    -1  
$EndComp
$Comp
L GND #PWR02
U 1 1 5AE16ED9
P 3750 2550
F 0 "#PWR02" H 3750 2300 50  0001 C CNN
F 1 "GND" H 3750 2400 50  0000 C CNN
F 2 "" H 3750 2550 50  0001 C CNN
F 3 "" H 3750 2550 50  0001 C CNN
	1    3750 2550
	1    0    0    -1  
$EndComp
$Comp
L GND #PWR03
U 1 1 5AE16EFC
P 4600 1900
F 0 "#PWR03" H 4600 1650 50  0001 C CNN
F 1 "GND" H 4600 1750 50  0000 C CNN
F 2 "" H 4600 1900 50  0001 C CNN
F 3 "" H 4600 1900 50  0001 C CNN
	1    4600 1900
	1    0    0    -1  
$EndComp
$Comp
L C_Small C6
U 1 1 5AE172D3
P 4000 1850
F 0 "C6" H 4010 1920 50  0000 L CNN
F 1 "1uF 16V" H 4010 1770 50  0000 L CNN
F 2 "Local:C-0306" H 4000 1850 50  0001 C CNN
F 3 "" H 4000 1850 50  0001 C CNN
	1    4000 1850
	1    0    0    -1  
$EndComp
$Comp
L GND #PWR04
U 1 1 5AE1735B
P 3850 1950
F 0 "#PWR04" H 3850 1700 50  0001 C CNN
F 1 "GND" H 3850 1800 50  0000 C CNN
F 2 "" H 3850 1950 50  0001 C CNN
F 3 "" H 3850 1950 50  0001 C CNN
	1    3850 1950
	1    0    0    -1  
$EndComp
$Comp
L R R5
U 1 1 5AE174B4
P 2050 2850
F 0 "R5" V 2130 2850 50  0000 C CNN
F 1 "1.5kR" V 2050 2850 50  0000 C CNN
F 2 "Resistors_SMD:R_0603_HandSoldering" V 1980 2850 50  0001 C CNN
F 3 "" H 2050 2850 50  0001 C CNN
	1    2050 2850
	1    0    0    -1  
$EndComp
$Comp
L C_Small C4
U 1 1 5AE174E8
P 2350 2550
F 0 "C4" H 2360 2620 50  0000 L CNN
F 1 ".1uF 10V" H 2360 2470 50  0000 L CNN
F 2 "Local:C-0306" H 2350 2550 50  0001 C CNN
F 3 "" H 2350 2550 50  0001 C CNN
	1    2350 2550
	1    0    0    -1  
$EndComp
$Comp
L GND #PWR05
U 1 1 5AE1758C
P 2050 3100
F 0 "#PWR05" H 2050 2850 50  0001 C CNN
F 1 "GND" H 2050 2950 50  0000 C CNN
F 2 "" H 2050 3100 50  0001 C CNN
F 3 "" H 2050 3100 50  0001 C CNN
	1    2050 3100
	1    0    0    -1  
$EndComp
$Comp
L GND #PWR06
U 1 1 5AE175B2
P 2350 2800
F 0 "#PWR06" H 2350 2550 50  0001 C CNN
F 1 "GND" H 2350 2650 50  0000 C CNN
F 2 "" H 2350 2800 50  0001 C CNN
F 3 "" H 2350 2800 50  0001 C CNN
	1    2350 2800
	1    0    0    -1  
$EndComp
$Comp
L L_Core_Ferrite_Small L1
U 1 1 5AE178F6
P 3400 1100
F 0 "L1" H 3450 1140 50  0000 L CNN
F 1 "3.3uH" H 3450 1050 50  0000 L CNN
F 2 "Local:L_4.9x4.9" H 3400 1100 50  0001 C CNN
F 3 "" H 3400 1100 50  0001 C CNN
	1    3400 1100
	0    -1   -1   0   
$EndComp
$Comp
L R R7
U 1 1 5AE17AFB
P 3400 3200
F 0 "R7" V 3480 3200 50  0000 C CNN
F 1 "10kR" V 3400 3200 50  0000 C CNN
F 2 "Resistors_SMD:R_0603_HandSoldering" V 3330 3200 50  0001 C CNN
F 3 "" H 3400 3200 50  0001 C CNN
	1    3400 3200
	0    1    1    0   
$EndComp
$Comp
L R R8
U 1 1 5AE17B73
P 3950 3200
F 0 "R8" V 4030 3200 50  0000 C CNN
F 1 "220kR" V 3950 3200 50  0000 C CNN
F 2 "Resistors_SMD:R_0603_HandSoldering" V 3880 3200 50  0001 C CNN
F 3 "" H 3950 3200 50  0001 C CNN
	1    3950 3200
	0    1    1    0   
$EndComp
$Comp
L GND #PWR07
U 1 1 5AE17BB9
P 3150 3350
F 0 "#PWR07" H 3150 3100 50  0001 C CNN
F 1 "GND" H 3150 3200 50  0000 C CNN
F 2 "" H 3150 3350 50  0001 C CNN
F 3 "" H 3150 3350 50  0001 C CNN
	1    3150 3350
	1    0    0    -1  
$EndComp
$Comp
L C_Small C5
U 1 1 5AE17E72
P 3850 1400
F 0 "C5" H 3860 1470 50  0000 L CNN
F 1 ".015uF 35V" H 3860 1320 50  0000 L CNN
F 2 "Local:C_0603_Margin" H 3850 1400 50  0001 C CNN
F 3 "" H 3850 1400 50  0001 C CNN
	1    3850 1400
	1    0    0    -1  
$EndComp
$Comp
L +12V #PWR08
U 1 1 5AE182AD
P 2650 1450
F 0 "#PWR08" H 2650 1300 50  0001 C CNN
F 1 "+12V" H 2650 1590 50  0000 C CNN
F 2 "" H 2650 1450 50  0001 C CNN
F 3 "" H 2650 1450 50  0001 C CNN
	1    2650 1450
	1    0    0    -1  
$EndComp
$Comp
L +12V #PWR09
U 1 1 5AE1834B
P 2200 1050
F 0 "#PWR09" H 2200 900 50  0001 C CNN
F 1 "+12V" H 2200 1190 50  0000 C CNN
F 2 "" H 2200 1050 50  0001 C CNN
F 3 "" H 2200 1050 50  0001 C CNN
	1    2200 1050
	1    0    0    -1  
$EndComp
$Comp
L R R2
U 1 1 5AE184B4
P 1850 1350
F 0 "R2" V 1930 1350 50  0000 C CNN
F 1 "249kR" V 1850 1350 50  0000 C CNN
F 2 "Resistors_SMD:R_0603_HandSoldering" V 1780 1350 50  0001 C CNN
F 3 "" H 1850 1350 50  0001 C CNN
	1    1850 1350
	1    0    0    -1  
$EndComp
$Comp
L R R3
U 1 1 5AE18518
P 1850 1750
F 0 "R3" V 1930 1750 50  0000 C CNN
F 1 "28kR" V 1850 1750 50  0000 C CNN
F 2 "Resistors_SMD:R_0603_HandSoldering" V 1780 1750 50  0001 C CNN
F 3 "" H 1850 1750 50  0001 C CNN
	1    1850 1750
	1    0    0    -1  
$EndComp
$Comp
L +12V #PWR010
U 1 1 5AE18667
P 1850 1100
F 0 "#PWR010" H 1850 950 50  0001 C CNN
F 1 "+12V" H 1850 1240 50  0000 C CNN
F 2 "" H 1850 1100 50  0001 C CNN
F 3 "" H 1850 1100 50  0001 C CNN
	1    1850 1100
	1    0    0    -1  
$EndComp
$Comp
L GND #PWR011
U 1 1 5AE1869F
P 1850 2000
F 0 "#PWR011" H 1850 1750 50  0001 C CNN
F 1 "GND" H 1850 1850 50  0000 C CNN
F 2 "" H 1850 2000 50  0001 C CNN
F 3 "" H 1850 2000 50  0001 C CNN
	1    1850 2000
	1    0    0    -1  
$EndComp
$Comp
L TEST TP1
U 1 1 5AE26AA6
P 3700 850
F 0 "TP1" H 3700 1150 50  0000 C BNN
F 1 "TEST" H 3700 1100 50  0000 C CNN
F 2 "Measurement_Points:Measurement_Point_Round-SMD-Pad_Small" H 3700 850 50  0001 C CNN
F 3 "" H 3700 850 50  0001 C CNN
	1    3700 850 
	1    0    0    -1  
$EndComp
$Comp
L R R4
U 1 1 5AE2739A
P 2050 2450
F 0 "R4" V 2130 2450 50  0000 C CNN
F 1 "56kR" V 2050 2450 50  0000 C CNN
F 2 "Resistors_SMD:R_0603_HandSoldering" V 1980 2450 50  0001 C CNN
F 3 "" H 2050 2450 50  0001 C CNN
	1    2050 2450
	1    0    0    -1  
$EndComp
$Comp
L +12V #PWR012
U 1 1 5AE2B0D4
P 1000 1400
F 0 "#PWR012" H 1000 1250 50  0001 C CNN
F 1 "+12V" H 1000 1540 50  0000 C CNN
F 2 "" H 1000 1400 50  0001 C CNN
F 3 "" H 1000 1400 50  0001 C CNN
	1    1000 1400
	1    0    0    -1  
$EndComp
$Comp
L GND #PWR013
U 1 1 5AE2B3B8
P 1000 1750
F 0 "#PWR013" H 1000 1500 50  0001 C CNN
F 1 "GND" H 1000 1600 50  0000 C CNN
F 2 "" H 1000 1750 50  0001 C CNN
F 3 "" H 1000 1750 50  0001 C CNN
	1    1000 1750
	1    0    0    -1  
$EndComp
$Comp
L C_Small C7
U 1 1 5AE2B6EB
P 4800 3050
F 0 "C7" H 4810 3120 50  0000 L CNN
F 1 "3.3uF 50V" H 4810 2970 50  0000 L CNN
F 2 "Capacitors_SMD:C_1210_HandSoldering" H 4800 3050 50  0001 C CNN
F 3 "" H 4800 3050 50  0001 C CNN
	1    4800 3050
	1    0    0    -1  
$EndComp
Wire Wire Line
	3700 2250 4300 2250
Wire Wire Line
	4300 2250 4300 2600
Wire Wire Line
	3700 2050 4300 2050
Wire Wire Line
	4300 2050 4300 1700
Wire Wire Line
	1650 2500 1650 2550
Wire Wire Line
	1650 2750 1650 2800
Wire Wire Line
	3700 2500 3750 2500
Wire Wire Line
	3750 2400 3750 2550
Wire Wire Line
	4600 1850 4600 1900
Wire Wire Line
	3700 1800 3850 1800
Wire Wire Line
	3850 1800 3850 1750
Wire Wire Line
	3850 1750 4000 1750
Wire Wire Line
	3700 1900 3850 1900
Wire Wire Line
	3850 1900 3850 1950
Wire Wire Line
	3850 1950 4000 1950
Connection ~ 3850 1950
Wire Wire Line
	2700 2350 2350 2350
Wire Wire Line
	2350 2350 2350 2450
Wire Wire Line
	2700 2250 2050 2250
Wire Wire Line
	2700 2100 1650 2100
Wire Wire Line
	1650 2100 1650 2200
Wire Wire Line
	2350 2650 2350 2800
Wire Wire Line
	2050 3000 2050 3100
Wire Wire Line
	4600 2350 4800 2350
Wire Wire Line
	4800 2350 4800 2950
Wire Wire Line
	4200 2900 5400 2900
Wire Wire Line
	4200 2900 4200 3200
Wire Wire Line
	4600 1100 4600 1450
Wire Wire Line
	3500 1100 4600 1100
Wire Wire Line
	4150 2750 4600 2750
Wire Wire Line
	4150 1100 4150 2750
Connection ~ 4150 1100
Wire Wire Line
	3550 3200 3800 3200
Wire Wire Line
	3150 3200 3150 3350
Wire Wire Line
	3650 3200 3650 2850
Wire Wire Line
	3650 2850 2700 2850
Wire Wire Line
	2700 2850 2700 2500
Connection ~ 3650 3200
Wire Wire Line
	4200 3200 4100 3200
Wire Wire Line
	3700 2400 3750 2400
Connection ~ 3750 2500
Wire Wire Line
	3700 2150 4150 2150
Connection ~ 4150 2150
Wire Wire Line
	3700 1700 3850 1700
Wire Wire Line
	3850 1700 3850 1500
Wire Wire Line
	3850 1300 3850 1100
Connection ~ 3850 1100
Wire Wire Line
	2700 1800 2550 1800
Wire Wire Line
	2550 1800 2550 1100
Wire Wire Line
	2700 1700 2350 1700
Wire Wire Line
	2350 1700 2350 1100
Wire Wire Line
	2550 1100 3300 1100
Wire Wire Line
	2650 1450 2650 1550
Wire Wire Line
	2650 1550 2700 1550
Wire Wire Line
	2200 1050 2200 1100
Wire Wire Line
	2200 1100 2350 1100
Wire Wire Line
	1850 1500 1850 1600
Wire Wire Line
	1850 1550 2200 1550
Wire Wire Line
	2200 1550 2200 1950
Wire Wire Line
	2200 1950 2700 1950
Connection ~ 1850 1550
Wire Wire Line
	1850 2000 1850 1900
Wire Wire Line
	1850 1200 1850 1100
Wire Wire Line
	3700 850  3700 1550
Connection ~ 3700 950 
Wire Wire Line
	3250 3200 3150 3200
Wire Wire Line
	2050 2250 2050 2300
Wire Wire Line
	2050 2600 2050 2700
Wire Wire Line
	4800 3150 4800 3200
$Comp
L C_Small C1
U 1 1 5AE2CB5B
P 1000 1550
F 0 "C1" H 1010 1620 50  0000 L CNN
F 1 "3.3uF 50V" H 1010 1470 50  0000 L CNN
F 2 "Capacitors_SMD:C_1210_HandSoldering" H 1000 1550 50  0001 C CNN
F 3 "" H 1000 1550 50  0001 C CNN
	1    1000 1550
	1    0    0    -1  
$EndComp
Wire Wire Line
	1000 1400 1000 1450
Wire Wire Line
	1000 1750 1000 1650
$Comp
L +12V #PWR014
U 1 1 5AE2E673
P 5300 1000
F 0 "#PWR014" H 5300 850 50  0001 C CNN
F 1 "+12V" H 5300 1140 50  0000 C CNN
F 2 "" H 5300 1000 50  0001 C CNN
F 3 "" H 5300 1000 50  0001 C CNN
	1    5300 1000
	1    0    0    -1  
$EndComp
$Comp
L GND #PWR015
U 1 1 5AE2E6CC
P 5700 1100
F 0 "#PWR015" H 5700 850 50  0001 C CNN
F 1 "GND" H 5700 950 50  0000 C CNN
F 2 "" H 5700 1100 50  0001 C CNN
F 3 "" H 5700 1100 50  0001 C CNN
	1    5700 1100
	1    0    0    -1  
$EndComp
$Comp
L PWR_FLAG #FLG016
U 1 1 5AE2E70D
P 5700 1000
F 0 "#FLG016" H 5700 1075 50  0001 C CNN
F 1 "PWR_FLAG" H 5700 1150 50  0000 C CNN
F 2 "" H 5700 1000 50  0001 C CNN
F 3 "" H 5700 1000 50  0001 C CNN
	1    5700 1000
	1    0    0    -1  
$EndComp
$Comp
L PWR_FLAG #FLG017
U 1 1 5AE2E76D
P 5300 1100
F 0 "#FLG017" H 5300 1175 50  0001 C CNN
F 1 "PWR_FLAG" H 5300 1250 50  0000 C CNN
F 2 "" H 5300 1100 50  0001 C CNN
F 3 "" H 5300 1100 50  0001 C CNN
	1    5300 1100
	-1   0    0    1   
$EndComp
Wire Wire Line
	5300 1000 5300 1100
Wire Wire Line
	5700 1000 5700 1100
$Comp
L CONN_02X02 J1
U 1 1 5AE2EC7E
P 1000 2450
F 0 "J1" H 1000 2600 50  0000 C CNN
F 1 "CONN_02X02" H 1000 2300 50  0000 C CNN
F 2 "Connectors_Molex:Molex_MiniFit-JR-5556-04A_2x02x4.20mm_Straight" H 1000 1250 50  0001 C CNN
F 3 "" H 1000 1250 50  0001 C CNN
	1    1000 2450
	1    0    0    -1  
$EndComp
$Comp
L CONN_02X02 J2
U 1 1 5AE2ED20
P 5650 2950
F 0 "J2" H 5650 3100 50  0000 C CNN
F 1 "CONN_02X02" H 5650 2800 50  0000 C CNN
F 2 "Connectors_Molex:Molex_MiniFit-JR-5556-04A_2x02x4.20mm_Straight" H 5650 1750 50  0001 C CNN
F 3 "" H 5650 1750 50  0001 C CNN
	1    5650 2950
	1    0    0    -1  
$EndComp
$Comp
L +5V #PWR018
U 1 1 5AE2EFDB
P 1300 2350
F 0 "#PWR018" H 1300 2200 50  0001 C CNN
F 1 "+5V" H 1300 2490 50  0000 C CNN
F 2 "" H 1300 2350 50  0001 C CNN
F 3 "" H 1300 2350 50  0001 C CNN
	1    1300 2350
	1    0    0    -1  
$EndComp
$Comp
L +5V #PWR019
U 1 1 5AE2F09C
P 5950 2850
F 0 "#PWR019" H 5950 2700 50  0001 C CNN
F 1 "+5V" H 5950 2990 50  0000 C CNN
F 2 "" H 5950 2850 50  0001 C CNN
F 3 "" H 5950 2850 50  0001 C CNN
	1    5950 2850
	1    0    0    -1  
$EndComp
$Comp
L +5V #PWR020
U 1 1 5AE2F0FB
P 6000 1000
F 0 "#PWR020" H 6000 850 50  0001 C CNN
F 1 "+5V" H 6000 1140 50  0000 C CNN
F 2 "" H 6000 1000 50  0001 C CNN
F 3 "" H 6000 1000 50  0001 C CNN
	1    6000 1000
	1    0    0    -1  
$EndComp
$Comp
L PWR_FLAG #FLG021
U 1 1 5AE2F15A
P 6000 1100
F 0 "#FLG021" H 6000 1175 50  0001 C CNN
F 1 "PWR_FLAG" H 6000 1250 50  0000 C CNN
F 2 "" H 6000 1100 50  0001 C CNN
F 3 "" H 6000 1100 50  0001 C CNN
	1    6000 1100
	-1   0    0    1   
$EndComp
$Comp
L +12V #PWR022
U 1 1 5AE2F1B9
P 700 2350
F 0 "#PWR022" H 700 2200 50  0001 C CNN
F 1 "+12V" H 700 2490 50  0000 C CNN
F 2 "" H 700 2350 50  0001 C CNN
F 3 "" H 700 2350 50  0001 C CNN
	1    700  2350
	1    0    0    -1  
$EndComp
$Comp
L GND #PWR023
U 1 1 5AE2F218
P 1300 2550
F 0 "#PWR023" H 1300 2300 50  0001 C CNN
F 1 "GND" H 1300 2400 50  0000 C CNN
F 2 "" H 1300 2550 50  0001 C CNN
F 3 "" H 1300 2550 50  0001 C CNN
	1    1300 2550
	1    0    0    -1  
$EndComp
$Comp
L GND #PWR024
U 1 1 5AE2F277
P 700 2550
F 0 "#PWR024" H 700 2300 50  0001 C CNN
F 1 "GND" H 700 2400 50  0000 C CNN
F 2 "" H 700 2550 50  0001 C CNN
F 3 "" H 700 2550 50  0001 C CNN
	1    700  2550
	1    0    0    -1  
$EndComp
$Comp
L GND #PWR025
U 1 1 5AE2F45E
P 5350 3050
F 0 "#PWR025" H 5350 2800 50  0001 C CNN
F 1 "GND" H 5350 2900 50  0000 C CNN
F 2 "" H 5350 3050 50  0001 C CNN
F 3 "" H 5350 3050 50  0001 C CNN
	1    5350 3050
	1    0    0    -1  
$EndComp
$Comp
L GND #PWR026
U 1 1 5AE2F4BD
P 5950 3050
F 0 "#PWR026" H 5950 2800 50  0001 C CNN
F 1 "GND" H 5950 2900 50  0000 C CNN
F 2 "" H 5950 3050 50  0001 C CNN
F 3 "" H 5950 3050 50  0001 C CNN
	1    5950 3050
	1    0    0    -1  
$EndComp
Wire Wire Line
	1250 2400 1300 2400
Wire Wire Line
	1300 2400 1300 2350
Wire Wire Line
	1250 2500 1300 2500
Wire Wire Line
	1300 2500 1300 2550
Wire Wire Line
	750  2500 700  2500
Wire Wire Line
	700  2500 700  2550
Wire Wire Line
	700  2350 700  2400
Wire Wire Line
	700  2400 750  2400
Wire Wire Line
	5100 3000 5400 3000
Wire Wire Line
	5350 3000 5350 3050
Wire Wire Line
	5900 2900 5950 2900
Wire Wire Line
	5950 2900 5950 2850
Wire Wire Line
	5900 3000 5950 3000
Wire Wire Line
	5950 3000 5950 3050
Wire Wire Line
	6000 1000 6000 1100
Connection ~ 4800 2900
Wire Wire Line
	4800 3200 5100 3200
Wire Wire Line
	5100 3200 5100 3000
Connection ~ 5350 3000
Connection ~ 2550 1100
Connection ~ 2350 1100
$Comp
L C_Small C2
U 1 1 5AEB8CF7
P 1250 1250
F 0 "C2" H 1260 1320 50  0000 L CNN
F 1 ".1uF 25V" H 1260 1170 50  0000 L CNN
F 2 "Local:C-0508" H 1250 1250 50  0001 C CNN
F 3 "" H 1250 1250 50  0001 C CNN
	1    1250 1250
	1    0    0    -1  
$EndComp
$Comp
L +12V #PWR027
U 1 1 5AEB8F8B
P 1250 1100
F 0 "#PWR027" H 1250 950 50  0001 C CNN
F 1 "+12V" H 1250 1240 50  0000 C CNN
F 2 "" H 1250 1100 50  0001 C CNN
F 3 "" H 1250 1100 50  0001 C CNN
	1    1250 1100
	1    0    0    -1  
$EndComp
$Comp
L GND #PWR028
U 1 1 5AEB8FDB
P 1250 1400
F 0 "#PWR028" H 1250 1150 50  0001 C CNN
F 1 "GND" H 1250 1250 50  0000 C CNN
F 2 "" H 1250 1400 50  0001 C CNN
F 3 "" H 1250 1400 50  0001 C CNN
	1    1250 1400
	1    0    0    -1  
$EndComp
Wire Wire Line
	1250 1150 1250 1100
Wire Wire Line
	1250 1350 1250 1400
Text Label 2050 2100 0    60   ~ 0
COMP
Text Label 2050 2250 0    60   ~ 0
RT
Text Label 2050 1550 0    60   ~ 0
EN
Text Label 2350 2350 0    60   ~ 0
SS
Text Label 3550 2850 0    60   ~ 0
FB
Text Label 4450 1100 0    60   ~ 0
SW
Text Label 3750 1800 0    60   ~ 0
VCC
Text Label 3750 1700 0    60   ~ 0
BOOT
Text Label 3700 1250 0    60   ~ 0
PGOOD
Text Label 2550 1800 0    60   ~ 0
Isns-
Text Label 5050 2900 0    60   ~ 0
+28V
Text Label 4050 2250 0    60   ~ 0
LDRV
Text Label 4050 2050 0    60   ~ 0
HDRV
$Comp
L R R9
U 1 1 5AED415C
P 4000 950
F 0 "R9" V 4080 950 50  0000 C CNN
F 1 "220kR" V 4000 950 50  0000 C CNN
F 2 "Resistors_SMD:R_0603_HandSoldering" V 3930 950 50  0001 C CNN
F 3 "" H 4000 950 50  0001 C CNN
	1    4000 950 
	0    1    1    0   
$EndComp
Wire Wire Line
	4150 950  4250 950 
Wire Wire Line
	3850 950  3700 950 
$Comp
L +5V #PWR029
U 1 1 5AED4DF6
P 4250 950
F 0 "#PWR029" H 4250 800 50  0001 C CNN
F 1 "+5V" H 4250 1090 50  0000 C CNN
F 2 "" H 4250 950 50  0001 C CNN
F 3 "" H 4250 950 50  0001 C CNN
	1    4250 950 
	1    0    0    -1  
$EndComp
$EndSCHEMATC
