(module C_0603_Margin (layer F.Cu) (tedit 5AED5260)
  (descr "Capacitor SMD 0603, hand soldering")
  (tags "capacitor 0603")
  (attr smd)
  (fp_text reference REF** (at 0 -1.25) (layer F.SilkS)
    (effects (font (size 1 1) (thickness 0.15)))
  )
  (fp_text value C_0603 (at 0 1.5) (layer F.Fab)
    (effects (font (size 1 1) (thickness 0.15)))
  )
  (fp_line (start -0.8 0.4) (end -0.8 -0.4) (layer F.Fab) (width 0.1))
  (fp_line (start 0.8 0.4) (end -0.8 0.4) (layer F.Fab) (width 0.1))
  (fp_line (start 0.8 -0.4) (end 0.8 0.4) (layer F.Fab) (width 0.1))
  (fp_line (start -0.8 -0.4) (end 0.8 -0.4) (layer F.Fab) (width 0.1))
  (fp_line (start -0.45 -0.5) (end 0.45 -0.5) (layer F.SilkS) (width 0.12))
  (fp_line (start 0.45 0.5) (end -0.45 0.5) (layer F.SilkS) (width 0.12))
  (fp_line (start -0.85 -0.45) (end 0.85 -0.45) (layer F.CrtYd) (width 0.05))
  (fp_line (start -0.85 -0.45) (end -0.85 0.45) (layer F.CrtYd) (width 0.05))
  (fp_line (start 0.85 0.45) (end 0.85 -0.45) (layer F.CrtYd) (width 0.05))
  (fp_line (start 0.85 0.45) (end -0.85 0.45) (layer F.CrtYd) (width 0.05))
  (pad 1 smd rect (at -1.05 0) (size 1.1 0.8) (layers F.Cu F.Paste F.Mask))
  (pad 2 smd rect (at 1.05 0) (size 1.1 0.8) (layers F.Cu F.Paste F.Mask))
  (model Capacitors_SMD.3dshapes/C_0603.wrl
    (at (xyz 0 0 0))
    (scale (xyz 1 1 1))
    (rotate (xyz 0 0 0))
  )
)
