EESchema Schematic File Version 2
LIBS:power
LIBS:device
LIBS:transistors
LIBS:conn
LIBS:linear
LIBS:regul
LIBS:74xx
LIBS:cmos4000
LIBS:adc-dac
LIBS:memory
LIBS:xilinx
LIBS:microcontrollers
LIBS:dsp
LIBS:microchip
LIBS:analog_switches
LIBS:motorola
LIBS:texas
LIBS:intel
LIBS:audio
LIBS:interface
LIBS:digital-audio
LIBS:philips
LIBS:display
LIBS:cypress
LIBS:siliconi
LIBS:opto
LIBS:atmel
LIBS:contrib
LIBS:valves
LIBS:components
LIBS:flipboard-cache
EELAYER 25 0
EELAYER END
$Descr USLetter 11000 8500
encoding utf-8
Sheet 1 1
Title ""
Date ""
Rev ""
Comp ""
Comment1 ""
Comment2 ""
Comment3 ""
Comment4 ""
$EndDescr
$Comp
L CONN_01X03 P1
U 1 1 578DB8A6
P 1100 2700
F 0 "P1" H 1100 2900 50  0000 C CNN
F 1 "CONN_01X03" V 1200 2700 50  0000 C CNN
F 2 "Pin_Headers:Pin_Header_Straight_1x03" H 1100 2700 50  0001 C CNN
F 3 "" H 1100 2700 50  0000 C CNN
	1    1100 2700
	-1   0    0    1   
$EndComp
$Comp
L POT RV1
U 1 1 578DBFDA
P 1500 2950
F 0 "RV1" H 1500 2850 50  0000 C CNN
F 1 "POT" H 1500 2950 50  0000 C CNN
F 2 "Pin_Headers:Pin_Header_Straight_1x03" H 1500 2950 50  0001 C CNN
F 3 "" H 1500 2950 50  0000 C CNN
	1    1500 2950
	0    1    1    0   
$EndComp
$Comp
L GND #PWR01
U 1 1 578DC28D
P 1450 3200
F 0 "#PWR01" H 1450 2950 50  0001 C CNN
F 1 "GND" H 1450 3050 50  0000 C CNN
F 2 "" H 1450 3200 50  0000 C CNN
F 3 "" H 1450 3200 50  0000 C CNN
	1    1450 3200
	1    0    0    -1  
$EndComp
$Comp
L GND #PWR02
U 1 1 578DC300
P 1300 2850
F 0 "#PWR02" H 1300 2600 50  0001 C CNN
F 1 "GND" H 1300 2700 50  0000 C CNN
F 2 "" H 1300 2850 50  0000 C CNN
F 3 "" H 1300 2850 50  0000 C CNN
	1    1300 2850
	1    0    0    -1  
$EndComp
$Comp
L +5V #PWR03
U 1 1 578DC33E
P 1300 2550
F 0 "#PWR03" H 1300 2400 50  0001 C CNN
F 1 "+5V" H 1300 2690 50  0000 C CNN
F 2 "" H 1300 2550 50  0000 C CNN
F 3 "" H 1300 2550 50  0000 C CNN
	1    1300 2550
	1    0    0    -1  
$EndComp
$Comp
L MAX291 U1
U 1 1 578DC645
P 2500 2950
F 0 "U1" H 2200 3175 50  0000 L BNN
F 1 "MAX291" H 2200 2550 50  0000 L BNN
F 2 "Housings_SOIC:SOIC-8-1EP_3.9x4.9mm_Pitch1.27mm" H 2500 3100 50  0001 C CNN
F 3 "" H 2500 2950 60  0000 C CNN
	1    2500 2950
	1    0    0    -1  
$EndComp
$Comp
L R R2
U 1 1 578DCA8F
P 2150 3550
F 0 "R2" V 2230 3550 50  0000 C CNN
F 1 "100k" V 2150 3550 50  0000 C CNN
F 2 "Resistors_SMD:R_0603_HandSoldering" V 2080 3550 50  0001 C CNN
F 3 "" H 2150 3550 50  0000 C CNN
	1    2150 3550
	0    1    1    0   
$EndComp
$Comp
L R R1
U 1 1 578DCB2E
P 1750 3550
F 0 "R1" V 1830 3550 50  0000 C CNN
F 1 "100k" V 1750 3550 50  0000 C CNN
F 2 "Resistors_SMD:R_0603_HandSoldering" V 1680 3550 50  0001 C CNN
F 3 "" H 1750 3550 50  0000 C CNN
	1    1750 3550
	0    1    1    0   
$EndComp
$Comp
L +5V #PWR04
U 1 1 578DCBC8
P 1550 3550
F 0 "#PWR04" H 1550 3400 50  0001 C CNN
F 1 "+5V" H 1550 3690 50  0000 C CNN
F 2 "" H 1550 3550 50  0000 C CNN
F 3 "" H 1550 3550 50  0000 C CNN
	1    1550 3550
	1    0    0    -1  
$EndComp
$Comp
L GND #PWR05
U 1 1 578DCCE0
P 2300 3600
F 0 "#PWR05" H 2300 3350 50  0001 C CNN
F 1 "GND" H 2300 3450 50  0000 C CNN
F 2 "" H 2300 3600 50  0000 C CNN
F 3 "" H 2300 3600 50  0000 C CNN
	1    2300 3600
	1    0    0    -1  
$EndComp
$Comp
L C C1
U 1 1 578DD74C
P 1950 2650
F 0 "C1" H 1975 2750 50  0000 L CNN
F 1 "16pF" H 1975 2550 50  0000 L CNN
F 2 "Capacitors_SMD:C_0603" H 1988 2500 50  0001 C CNN
F 3 "" H 1950 2650 50  0000 C CNN
	1    1950 2650
	1    0    0    -1  
$EndComp
$Comp
L GND #PWR06
U 1 1 578DD791
P 1800 2500
F 0 "#PWR06" H 1800 2250 50  0001 C CNN
F 1 "GND" H 1800 2350 50  0000 C CNN
F 2 "" H 1800 2500 50  0000 C CNN
F 3 "" H 1800 2500 50  0000 C CNN
	1    1800 2500
	1    0    0    -1  
$EndComp
$Comp
L TPA2005 U2
U 1 1 578DDDF0
P 4350 3050
F 0 "U2" H 3850 3650 60  0000 L BNB
F 1 "TPA2005" H 3850 2450 40  0000 L TNN
F 2 "dfn:DFN-8-1EP_3x3mm_Pitch0.65mm" H 3925 2350 40  0001 C CNN
F 3 "" H 3850 3650 50  0000 C CNN
F 4 "IC" H 3850 3750 40  0001 L BNN "Family"
	1    4350 3050
	1    0    0    -1  
$EndComp
$Comp
L +5V #PWR07
U 1 1 578DE01E
P 3700 2550
F 0 "#PWR07" H 3700 2400 50  0001 C CNN
F 1 "+5V" H 3700 2690 50  0000 C CNN
F 2 "" H 3700 2550 50  0000 C CNN
F 3 "" H 3700 2550 50  0000 C CNN
	1    3700 2550
	1    0    0    -1  
$EndComp
$Comp
L GND #PWR08
U 1 1 578DE047
P 3700 3550
F 0 "#PWR08" H 3700 3300 50  0001 C CNN
F 1 "GND" H 3700 3400 50  0000 C CNN
F 2 "" H 3700 3550 50  0000 C CNN
F 3 "" H 3700 3550 50  0000 C CNN
	1    3700 3550
	1    0    0    -1  
$EndComp
$Comp
L GND #PWR09
U 1 1 578DE229
P 5000 3550
F 0 "#PWR09" H 5000 3300 50  0001 C CNN
F 1 "GND" H 5000 3400 50  0000 C CNN
F 2 "" H 5000 3550 50  0000 C CNN
F 3 "" H 5000 3550 50  0000 C CNN
	1    5000 3550
	1    0    0    -1  
$EndComp
$Comp
L R R3
U 1 1 578DE8DA
P 3500 2800
F 0 "R3" V 3580 2800 50  0000 C CNN
F 1 "150k" V 3500 2800 50  0000 C CNN
F 2 "Resistors_SMD:R_0603_HandSoldering" V 3430 2800 50  0001 C CNN
F 3 "" H 3500 2800 50  0000 C CNN
	1    3500 2800
	0    1    1    0   
$EndComp
$Comp
L R R4
U 1 1 578DE92D
P 3500 3200
F 0 "R4" V 3580 3200 50  0000 C CNN
F 1 "150k" V 3500 3200 50  0000 C CNN
F 2 "Resistors_SMD:R_0603_HandSoldering" V 3430 3200 50  0001 C CNN
F 3 "" H 3500 3200 50  0000 C CNN
	1    3500 3200
	0    1    1    0   
$EndComp
Wire Wire Line
	1500 3200 1450 3200
Wire Wire Line
	1300 2850 1300 2800
Wire Wire Line
	1300 2550 1300 2600
Wire Wire Line
	1300 2700 1500 2700
Wire Wire Line
	2000 2950 1650 2950
Wire Wire Line
	2000 3150 2000 3400
Wire Wire Line
	2000 3400 3000 3400
Wire Wire Line
	3000 3400 3000 3100
Wire Wire Line
	1950 3550 1950 3050
Wire Wire Line
	1950 3050 2000 3050
Wire Wire Line
	2300 3550 2300 3600
Wire Wire Line
	1550 3550 1600 3550
Wire Wire Line
	1900 3550 2000 3550
Connection ~ 1950 3550
Wire Wire Line
	1950 2500 1800 2500
Wire Wire Line
	1950 2800 1950 2850
Wire Wire Line
	1950 2850 2000 2850
Wire Wire Line
	3750 2600 3700 2600
Wire Wire Line
	3700 2550 3700 3400
Wire Wire Line
	3750 3500 3700 3500
Wire Wire Line
	3700 3500 3700 3550
Wire Wire Line
	3700 3400 3750 3400
Connection ~ 3700 2600
Wire Wire Line
	3750 2800 3650 2800
Wire Wire Line
	3750 3200 3650 3200
Wire Wire Line
	5000 3550 5000 3500
Wire Wire Line
	5000 3500 4950 3500
$Comp
L C C2
U 1 1 578DECD1
P 3200 2850
F 0 "C2" H 3225 2950 50  0000 L CNN
F 1 "1uF" H 3225 2750 50  0000 L CNN
F 2 "Capacitors_SMD:C_0603" H 3238 2700 50  0001 C CNN
F 3 "" H 3200 2850 50  0000 C CNN
	1    3200 2850
	0    1    1    0   
$EndComp
$Comp
L C C3
U 1 1 578DED16
P 3200 3250
F 0 "C3" H 3225 3350 50  0000 L CNN
F 1 "1uF" H 3225 3150 50  0000 L CNN
F 2 "Capacitors_SMD:C_0603" H 3238 3100 50  0001 C CNN
F 3 "" H 3200 3250 50  0000 C CNN
	1    3200 3250
	0    1    1    0   
$EndComp
Wire Wire Line
	3000 2950 3050 2950
Wire Wire Line
	3050 2950 3050 2850
Wire Wire Line
	3350 2850 3350 2800
Wire Wire Line
	3350 3200 3350 3250
$Comp
L GND #PWR010
U 1 1 578DEE36
P 3050 3300
F 0 "#PWR010" H 3050 3050 50  0001 C CNN
F 1 "GND" H 3050 3150 50  0000 C CNN
F 2 "" H 3050 3300 50  0000 C CNN
F 3 "" H 3050 3300 50  0000 C CNN
	1    3050 3300
	1    0    0    -1  
$EndComp
Wire Wire Line
	3050 3250 3050 3300
$Comp
L CONN_01X02 P2
U 1 1 578DEEC3
P 5200 3000
F 0 "P2" H 5200 3150 50  0000 C CNN
F 1 "CONN_01X02" V 5300 3000 50  0000 C CNN
F 2 "Pin_Headers:Pin_Header_Straight_1x02" H 5200 3000 50  0001 C CNN
F 3 "" H 5200 3000 50  0000 C CNN
	1    5200 3000
	1    0    0    -1  
$EndComp
Wire Wire Line
	4950 2800 5000 2800
Wire Wire Line
	5000 2800 5000 2950
Wire Wire Line
	4950 3200 5000 3200
Wire Wire Line
	5000 3200 5000 3050
$Comp
L PWR_FLAG #FLG011
U 1 1 578E1545
P 1700 2300
F 0 "#FLG011" H 1700 2395 50  0001 C CNN
F 1 "PWR_FLAG" H 1700 2480 50  0000 C CNN
F 2 "" H 1700 2300 50  0000 C CNN
F 3 "" H 1700 2300 50  0000 C CNN
	1    1700 2300
	1    0    0    -1  
$EndComp
$Comp
L PWR_FLAG #FLG012
U 1 1 578E15A1
P 2200 2300
F 0 "#FLG012" H 2200 2395 50  0001 C CNN
F 1 "PWR_FLAG" H 2200 2480 50  0000 C CNN
F 2 "" H 2200 2300 50  0000 C CNN
F 3 "" H 2200 2300 50  0000 C CNN
	1    2200 2300
	1    0    0    -1  
$EndComp
$Comp
L +5V #PWR013
U 1 1 578E15F1
P 1500 2300
F 0 "#PWR013" H 1500 2150 50  0001 C CNN
F 1 "+5V" H 1500 2440 50  0000 C CNN
F 2 "" H 1500 2300 50  0000 C CNN
F 3 "" H 1500 2300 50  0000 C CNN
	1    1500 2300
	1    0    0    -1  
$EndComp
Wire Wire Line
	1700 2350 1700 2300
Wire Wire Line
	1700 2350 1500 2350
Wire Wire Line
	1500 2350 1500 2300
$Comp
L GND #PWR014
U 1 1 578E16A8
P 2200 2350
F 0 "#PWR014" H 2200 2100 50  0001 C CNN
F 1 "GND" H 2200 2200 50  0000 C CNN
F 2 "" H 2200 2350 50  0000 C CNN
F 3 "" H 2200 2350 50  0000 C CNN
	1    2200 2350
	1    0    0    -1  
$EndComp
Wire Wire Line
	2200 2300 2200 2350
$EndSCHEMATC
